{
    "$schema": "https://gitlab.com/ryliepavlik/lab-mr-artifact-bot/raw/master/config.schema.json",
    "#1": "Note: all the elements with a 'key' starting with # are just human-readable commments",
    "#2": "They are totally ignored when the app processes the parsed JSON.",
    "rpavlik/test": {
        "#1": "The following is optional, so just omit it if it isn't known. It will be cached once discovered.",
        "project_id": 411,
        "#2": "The following defaults to true, if omitted.",
        "actually_post": false,
        "#3": "The following is Jinja2 template source, directly included, for the message.",
        "#4": "There is a mapping named 'jobs' with the make_artifact_link method and has_artifacts attribute.",
        "#5": "The second param to make_artifact_link is an ArtifactAction, one of LOG, DOWNLOAD, BROWSE, or DISPLAY.",
        "#6": "There is also a snippet called meta which consists of a message made from the template values commit, pipeline_id, and pipeline_url",
        "#7": "Finally, there is a template variable named status.",
        "#8": "The source may be a single string, or an array of lines.",
        "mr_template_source": [
            "beep boop",
            "{{jobs['do-build'].make_artifact_link('my link', LOG)}}",
            "{{jobs['do-build'].make_artifact_link('download artifact', DOWNLOAD, 'artifact.txt')}}",
            "{% if jobs['do-build'].has_artifacts %} got some artifacts yo {% endif %}",
            "{% if jobs['do-build-2'].has_artifacts %} never see this since this job has no artifacts{% endif %}",
            "",
            "{{meta}}"
        ],
        "#9": "You may omit the mr_template_source, since a file will be looked for in the target branch of each MR.",
        "#10": "If you don't specify mr_template_filename, it uses .artifact-bot.md.",
        "#11": "If you specify mr_template_filename as null, this will be disabled.",
        "#12": "If the file is not found, then the mr_template_source is used as fallback, if provided."
    }
}